{
    "Encoding": "UTF-8",
    "KPlugin": {
        "Category": "Plugins",
        "Description": "Assign values to graph edges and nodes.",
        "Description[ca@valencia]": "Assigna valors a les arestes i nodes del graf.",
        "Description[ca]": "Assigna valors a les arestes i nodes del graf.",
        "Description[de]": "Werte zu Graphenkanten und -knoten zuweisen.",
        "Description[el]": "Ανάθεση τιμών στους κόμβους και στις ακμές του γραφήματος.",
        "Description[en_GB]": "Assign values to graph edges and nodes.",
        "Description[es]": "Asignar valores a aristas de grafos y a nodos.",
        "Description[et]": "Väärtuste omistamine graafi seostele ja tippudele.",
        "Description[eu]": "Esleitu balioak grafikoen ertz eta nodoei.",
        "Description[fi]": "Sijoita arvot graafin väleihin ja solmuihin.",
        "Description[fr]": "Assigne des valeurs aux arêtes et aux sommets d'un graphe.",
        "Description[gl]": "Asigna valores ás arestas e vértices do gráfico.",
        "Description[it]": "Assegna valori ad archi e nodi di un grafo.",
        "Description[ko]": "그래프의 선과 점에 값을 할당합니다.",
        "Description[nl]": "Waarden toekennen aan randen en knooppunten van grafen.",
        "Description[pl]": "Przypisz wartości krawędziom i węzłom grafu",
        "Description[pt]": "Atribui valores às arestas e nós do grafo.",
        "Description[pt_BR]": "Atribuir valores às bordas e nós do grafo.",
        "Description[ru]": "Присваивает значения рёбрам и вершинам графа.",
        "Description[sk]": "Priradiť hodnoty k okrajom grafu a uzlom.",
        "Description[sl]": "Povezavam in vozliščem grafa dodeli vrednosti.",
        "Description[sv]": "Tilldela värden till grafkanter och noder.",
        "Description[tr]": "Değerleri grafik kenarlarına ve düğümlerine ata.",
        "Description[uk]": "Додавання значень до ребер та вузлів графу.",
        "Description[x-test]": "xxAssign values to graph edges and nodes.xx",
        "Description[zh_CN]": "给图的边和节点赋值。",
        "Description[zh_TW]": "指定值給圖形邊緣與節點。",
        "Id": "rocs_assignvaluesplugin",
        "License": "GPL",
        "Name": "Assign Values Plugin",
        "Name[ca@valencia]": "Connector per a assignar valors",
        "Name[ca]": "Connector per a assignar valors",
        "Name[cs]": "Modul pro přiřazování hodnot",
        "Name[de]": "Wertzuweisungs-Modul",
        "Name[el]": "Πρόσθετο ανάθεσης τιμών",
        "Name[en_GB]": "Assign Values Plugin",
        "Name[es]": "Complemento para asignar valores",
        "Name[et]": "Väärtuste omistamise plugin",
        "Name[eu]": "Balioak esleitzeko plugina",
        "Name[fi]": "Sijoita arvot -liitännäinen",
        "Name[fr]": "Module d'extension pour assigner des valeurs",
        "Name[gl]": "Complemento de asignar valores",
        "Name[it]": "Estensione di assegnazione valori",
        "Name[ko]": "값 할당 플러그인",
        "Name[nl]": "Plug-in voor waarden toekennen",
        "Name[pl]": "Wtyczka przypisywania wartości",
        "Name[pt]": "'Plugin' de Atribuição de Valores",
        "Name[pt_BR]": "Plugin de atribuição de valores",
        "Name[ru]": "Модуль присвоения значений",
        "Name[sk]": "Plugin priradenia hodnôt",
        "Name[sl]": "Vstavek za dodeljevanje vrednosti",
        "Name[sv]": "Insticksprogram för att tilldela värden",
        "Name[tr]": "Değerleri Ata",
        "Name[uk]": "Додаток пов’язування значень",
        "Name[x-test]": "xxAssign Values Pluginxx",
        "Name[zh_CN]": "分配值插件",
        "Name[zh_TW]": "指定值外掛程式",
        "ServiceTypes": [
            "rocs/editorplugins"
        ],
        "Version": "0.2"
    }
}
