{
    "Encoding": "UTF-8",
    "KPlugin": {
        "Category": "Plugins",
        "Description": "This generates a new graph by a pattern.",
        "Description[ca@valencia]": "Això genera un nou graf segons un patró.",
        "Description[ca]": "Això genera un nou graf segons un patró.",
        "Description[de]": "Erstellt anhand eines Musters einen neuen Graphen.",
        "Description[el]": "Δημιουργία ενός νέου γράφου με βάση ένα μοτίβο.",
        "Description[en_GB]": "This generates a new graph by a pattern.",
        "Description[es]": "Esto genera un nuevo grafo usando un patrón.",
        "Description[et]": "Uue graafi genereerimine mustri järgi.",
        "Description[eu]": "Honek grafiko berria sortzen du eredu baten arabera.",
        "Description[fi]": "Tämä generoi uuden graafin mallin perusteella.",
        "Description[fr]": "Cette fonction génère un nouveau graphe à l'aide d'un motif.",
        "Description[gl]": "Xera un gráfico novo segundo un padrón.",
        "Description[it]": "Questo genera un nuovo grafo secondo uno schema.",
        "Description[ko]": "패턴을 사용하여 새 그래프를 만듭니다.",
        "Description[nl]": "Dit genereert een nieuwe graaf naar een patroon.",
        "Description[pl]": "Generuje to nowy graf według wzorca.",
        "Description[pt]": "Isto gera um novo grafo com base num dado padrão.",
        "Description[pt_BR]": "Isto gera um novo grafo de acordo com um padrão.",
        "Description[ru]": "Создаёт новый граф по шаблону.",
        "Description[sk]": "Toto generuje nový graf podľa vzoru.",
        "Description[sl]": "Po vzorcu ustvari nov graf.",
        "Description[sv]": "Skapar en ny graf enligt ett mönster.",
        "Description[tr]": "Bu, bir desene göre bir grafik oluşturur.",
        "Description[uk]": "Створює новий граф за шаблоном.",
        "Description[x-test]": "xxThis generates a new graph by a pattern.xx",
        "Description[zh_CN]": "根据纹理生成新图形。",
        "Description[zh_TW]": "依樣式產生新的圖形。",
        "Id": "rocs_generategraphplugin",
        "License": "GPL",
        "Name": "Generate Graph",
        "Name[bg]": "Създаване на графика",
        "Name[bs]": "Generiši Graf",
        "Name[ca@valencia]": "Genera el graf",
        "Name[ca]": "Genera el graf",
        "Name[cs]": "Vygenerovat graf",
        "Name[da]": "Generér graf",
        "Name[de]": "Graphen erstellen",
        "Name[el]": "Δημιουργία γράφου",
        "Name[en_GB]": "Generate Graph",
        "Name[es]": "Generar grafo",
        "Name[et]": "Graafi genereerimine",
        "Name[eu]": "Sortu grafikoa",
        "Name[fi]": "Generoi graafi",
        "Name[fr]": "Générer un graphe",
        "Name[gl]": "Xerar un gráfico",
        "Name[hu]": "Gráf készítése",
        "Name[it]": "Genera grafo",
        "Name[kk]": "Графты құру",
        "Name[km]": "បង្កើត​ក្រាហ្វ",
        "Name[ko]": "그래프 생성",
        "Name[lt]": "Generuoti grafiką",
        "Name[lv]": "Ģenerēt grafu",
        "Name[mr]": "आलेख बनवा",
        "Name[nb]": "Lag graf",
        "Name[nds]": "Diagramm opstellen",
        "Name[nl]": "Graaf genereren",
        "Name[pl]": "Generuj graf",
        "Name[pt]": "Gerar um Grafo",
        "Name[pt_BR]": "Gerar o grafo",
        "Name[ru]": "Построитель графа",
        "Name[sk]": "Generovať graf",
        "Name[sl]": "Ustvari graf",
        "Name[sv]": "Skapa graf",
        "Name[tr]": "Grafik Oluştur",
        "Name[ug]": "گرافنى ھاسىل قىل",
        "Name[uk]": "Створення графу",
        "Name[x-test]": "xxGenerate Graphxx",
        "Name[zh_CN]": "生成图",
        "Name[zh_TW]": "產生圖形",
        "ServiceTypes": [
            "rocs/editorplugins"
        ],
        "Version": "0.2"
    }
}
