{
    "Encoding": "UTF-8",
    "KPlugin": {
        "Category": "Plugins",
        "Description": "Writes graph documents in PGF/TikZ format for use in LaTeX documents",
        "Description[ca@valencia]": "Escriu documents gràfics en format PGF/TikZ per a usar-los en documents LaTeX",
        "Description[ca]": "Escriu documents gràfics en format PGF/TikZ per a usar-los en documents LaTeX",
        "Description[de]": "Exportiert Graphendokumente im Format PGF/TikZ zur Verwendung in LaTeX-Dokumenten",
        "Description[el]": "Γράφει τα έγγραφα γράφων σε μορφή PGF/TikZ για να χρησιμοποιηθούν σε έγγραφα LaTeX",
        "Description[en_GB]": "Writes graph documents in PGF/TikZ format for use in LaTeX documents",
        "Description[es]": "Escribe documentos de grafos en el formato PGF/TikZ para usar en documentos LaTeX",
        "Description[et]": "Graafidokumentide kirjutamine PGF/TikZ vormingus kasutamiseks LaTeXi dokumentides",
        "Description[eu]": "Grafiko dokumentuak idazten ditu PGF/TikZ formatuak LaTeX dokumentuetan erabiltzeko",
        "Description[fi]": "Kirjoittaa PGF/TikZ-muotoisia graafitiedostoja LaTeX-tiedostoissa käyttämiseen",
        "Description[fr]": "Écrit des documents de graphes au format « PGF » / « TikZ » pour utilisation dans des documents LaTeX",
        "Description[gl]": "Escribe documentos de gráficos no formato PGF/TikZ para usar en documentos de LaTeX",
        "Description[it]": "Scrive grafi in formato PGF/TikZ per usarli nei documenti LaTeX",
        "Description[ko]": "LaTeX 문서에 사용할 PGF/TikZ 파일로 그래프 문서 작성",
        "Description[nl]": "Schrijft grafiekdocumenten in PGF/TikZ-formaat die in LaTeX-documenten worden gebruikt.",
        "Description[pl]": "Zapisuje dokumenty grafów w formacie PGF/TikZ do wykorzystania w dokumentach LaTeX",
        "Description[pt]": "Grava os documentos dos grafos no formato PGF/TikZ para usar nos documentos em LaTeX",
        "Description[pt_BR]": "Grava documentos de grafo no formato PGF/TikZ para uso em documentos LaTeX",
        "Description[ru]": "Записывает определения графов в формате PGF/TikZ для использования в документах LaTeX",
        "Description[sk]": "Zapíše grafické dokumenty do formátu PGF/TikZ na použitie s dokumentmi LaTeX",
        "Description[sl]": "Zapiše dokumente grafov v obliki PGF/TikZ za uporabo v dokumentih LaTeX",
        "Description[sv]": "Skriver grafdokument med PGF/TikZ-format för användning i Latex-dokument",
        "Description[tr]": "LaTeX belgelerinde kullanmak üzere grafik belgelerini PGF/TikZ biçiminde yazar",
        "Description[uk]": "Запис документів графів у форматі PGF/TikZ з метою наступного використання у документах LaTeX",
        "Description[x-test]": "xxWrites graph documents in PGF/TikZ format for use in LaTeX documentsxx",
        "Description[zh_CN]": "将图形文档写入为 PGF/TikZ 格式以用于 LaTex 文档",
        "Description[zh_TW]": "寫入 PGF/TikZ 格式的圖形文件，以便在 LaTeX 文件中使用",
        "Id": "rocs_tikzfileformat",
        "License": "GPL",
        "Name": "PGF/TikZ Graph File Export Plugin",
        "Name[ca@valencia]": "Connector d'exportació del fitxer de grafs a PGF/TikZ",
        "Name[ca]": "Connector d'exportació del fitxer de grafs a PGF/TikZ",
        "Name[cs]": "Export souborů grafů PGF/TikZ",
        "Name[de]": "PGF/TikZ-Graphendateiexportmodul",
        "Name[el]": "Πρόσθετο εξαγωγής αρχείων γράφων PGF/TikZ",
        "Name[en_GB]": "PGF/TikZ Graph File Export Plugin",
        "Name[es]": "Complemento de exportación de archivo de grafos PGF/TikZ",
        "Name[et]": "PGF/TikZ graafifaili ekspordiplugin",
        "Name[eu]": "PGF/TikZ grafiko fitxategien esportatze-plugina",
        "Name[fi]": "PGF/TikZ-graafitiedoston vientiliitännäinen",
        "Name[fr]": "Module externe d'exportation de fichiers « PGF / TikZ »",
        "Name[gl]": "Complemento de exportación de ficheiros de gráficos PGF/TikZ",
        "Name[it]": "Estensione di esportazione a file PGF/TikZ",
        "Name[ko]": "PGF/TikZ 그래프 파일 내보내기 플러그인",
        "Name[nl]": "Plugin voor exporteren van PGF/TikZ Graph-bestanden",
        "Name[pl]": "Wtyczka eksportu plików grafów PGF/TikZ",
        "Name[pt]": "'Plugin' de Exportação para Ficheiros de Grafos PGF/TikZ",
        "Name[pt_BR]": "Plugin para exportação de arquivo de grafo PGF/TikZ",
        "Name[ru]": "Модуль экспорта в файлы графов PGF/TikZ",
        "Name[sk]": "Exportný plugin súborov grafu PGF/TikZ",
        "Name[sl]": "Vstavek izvoza datotek grafov PGF/TikZ",
        "Name[sv]": "Exportinsticksprogram för PGF/TikZ-graffilformat",
        "Name[tr]": "PGF/TikZ Grafik Dosya Dışa Aktarma Eklentisi",
        "Name[uk]": "Додаток експортування файлів графів PGF/TikZ",
        "Name[x-test]": "xxPGF/TikZ Graph File Export Pluginxx",
        "Name[zh_CN]": "PGF/TikZ 图形文件导出插件",
        "Name[zh_TW]": "PGF/TikZ 圖形檔匯出外掛程式",
        "ServiceTypes": [
            "rocs/graphtheory/fileformat"
        ],
        "Version": "0.1"
    }
}
