{
    "Encoding": "UTF-8",
    "KPlugin": {
        "Category": "Plugins",
        "Description": "Read and write Graphviz graph documents (DOT)",
        "Description[ca@valencia]": "Llig i escriu documents gràfics del Graphviz (DOT).",
        "Description[ca]": "Llegeix i escriu documents gràfics del Graphviz (DOT).",
        "Description[cs]": "Čte a ukládá soubory grafů Graphviz (DOT)",
        "Description[de]": "Graphviz-Graphendokumente (DOT) lesen und schreiben",
        "Description[el]": "Ανάγνωση και εγγραφή εγγράφων γράφων Graphviz (DOT)",
        "Description[en_GB]": "Read and write Graphviz graph documents (DOT)",
        "Description[es]": "Leer y escribir documentos de grafos Graphviz (DOT)",
        "Description[et]": "Graphvizi graafidokumentide (DOT) lugemine ja kirjutamine.",
        "Description[eu]": "Irakurri eta idatzi Graphviz grafiko dokumentuak (DOT)",
        "Description[fi]": "Lukee ja kirjoittaa Graphviz-graafitiedostoja (DOT)",
        "Description[fr]": "Lit et écrit des documents de graphes « Graphviz » (« DOT »)",
        "Description[gl]": "Le e escribe documentos de gráficos de Graphviz (DOT)",
        "Description[it]": "Leggi e scrivi i grafi Graphviz (DOT)",
        "Description[ko]": "Graphviz 그래프 문서(DOT) 파일 읽고 쓰기",
        "Description[nl]": "Lezen en schrijven van Graphviz grafiekbestanden (DOT)",
        "Description[pl]": "Czytaj i zapisuj dokumenty grafów Graphviz (DOT)",
        "Description[pt]": "Lê e grava documentos de grafos no Graphviz (DOT)",
        "Description[pt_BR]": "Lê e grava documentos de grafo do Graphviz (DOT)",
        "Description[ru]": "Читает и записывает определения графов Graphviz (DOT)",
        "Description[sk]": "Čítanie a zápis grafických dokumentov Graphviz (DOT)",
        "Description[sl]": "Branje in pisanje dokumentov grafov Graphviz (DOT)",
        "Description[sv]": "Läs och skriv Graphviz-grafdokument (DOT)",
        "Description[tr]": "Graphviz grafik belgelerini oku ve yaz (DOT)",
        "Description[uk]": "Читання і запис файлів документів графів Graphviz (DOT)",
        "Description[x-test]": "xxRead and write Graphviz graph documents (DOT)xx",
        "Description[zh_CN]": "读写 Graphviz 图形文档 (DOT)",
        "Description[zh_TW]": "讀寫 Graphviz 圖形檔 (DOT)。",
        "Id": "rocs_dotfileformat",
        "License": "GPL",
        "Name": "DOT Graph File Format",
        "Name[ca@valencia]": "Format de fitxer de grafs DOT",
        "Name[ca]": "Format de fitxer de grafs DOT",
        "Name[cs]": "Formát souborů grafů DOT",
        "Name[de]": "DOT-Graphendateiformat",
        "Name[el]": "Τύπος αποθήκευσης αρχείων γράφων DOT",
        "Name[en_GB]": "DOT Graph File Format",
        "Name[es]": "Formato de archivo de grafos DOT",
        "Name[et]": "DOT graafifailivorming",
        "Name[eu]": "DOT grafiko fitxategi-formatua",
        "Name[fi]": "DOT-graafitiedostomuoto",
        "Name[fr]": "Format de fichier de graphe « DOT »",
        "Name[gl]": "Formato de ficheiro de gráficos DOT",
        "Name[it]": "Formato di file di grafi DOT",
        "Name[ko]": "DOT 그래프 파일 형식",
        "Name[nl]": "Bestandsformaat voor DOT Graph",
        "Name[pl]": "Format plików grafów DOT",
        "Name[pt]": "Formato de Ficheiros de Grafos do DOT",
        "Name[pt_BR]": "Formato de arquivo de grafo DOT",
        "Name[ru]": "Поддержка файлов графов DOT",
        "Name[sk]": "Súborový formát grafu DOT",
        "Name[sl]": "Vrsta datotek grafov DOT",
        "Name[sv]": "DOT-graffilformat",
        "Name[tr]": "DOT Grafik Dosya Biçimi",
        "Name[uk]": "формат файлів графів DOT",
        "Name[x-test]": "xxDOT Graph File Formatxx",
        "Name[zh_CN]": "DOT 图形文件格式",
        "Name[zh_TW]": "DOT 圖形檔案格式",
        "ServiceTypes": [
            "rocs/graphtheory/fileformat"
        ],
        "Version": "0.1"
    }
}
